
{
    "Course_num":"219",
    "Course_semester":"Spring",
    "Course_subject":"CSE",
    "Course_title":"Computer Science III",
    "Course_year":"2017",
    "Instructor_home":"richard@cs.stonybrook.edu",
    "Instructor_name":"Richard McKenna",
    "Left_image":"380",
    "Right_image":"381",
    "School_image":".\\public_html\\images\\SBUDarkRedShieldLogo.png",
    "Site_template":"114"
}